// One line of comments at the top.  Do I need a final endline at the end?
0       1.00000
1       0.69699
2       0.19483
3       0.08173
4       0.01953
5       0.00581
6       0.00110
7       0.00000