LowerStrip      Y-Lambda[keV]
1	0.000000
2	9.904322
3	9.422390
4	9.521754
5	9.434955
6	9.349912
7	9.358406
8	9.383029
9	9.287822
10	9.344957
11	9.460338
12	9.427081
13	9.185145
14	9.187631
15	9.315732
16	9.203338
17	9.342708
18	9.430551
19	9.195840
20	9.360986
21	9.246924
22	9.250126
23	9.356131
24	9.217928
25	9.330466
26	9.390084
27	9.183250
28	9.397425
29	9.256358
30	9.336190
31	9.297027
32	9.430411
33	9.400376
34	10.055190
35	0.000000
36	10.483823
37	9.301131
38	9.443611
39	9.672269
40	10.759856
