LowerStrip      X-Lambda[keV]
1	9.523664
2	9.301670
3	9.282455
4	9.154297
5	9.191827
6	9.113253
7	9.210068
8	9.299531
9	9.324428
10	9.320147
11	9.333721
12	9.405859
13	9.366132
14	9.575120
15	9.418075
16	9.457932
17	9.156006
18	9.243873
19	9.425543
20	9.339475
21	9.460025
22	9.455623
23	9.382652
24	9.317501
25	9.311991
26	9.256624
27	9.361579
28	9.366587
29	9.457497
30	9.521219
31	9.415271
32	9.386003
33	9.328864
34	9.289571
35	9.158695
36	9.230615
37	9.346487
38	9.474538
39	9.450359
40	9.763270
