UpperStrip      X-Lambda[keV]
1	10.592284
2	10.863677
3	10.303837
4	10.709000
5	10.294818
6	10.491032
7	10.472118
8	10.584904
9	10.315807
10	10.894881
11	10.361180
12	10.751241
13	10.422008
14	12.296111
15	10.529511
16	10.728250
17	10.352045
18	10.757302
19	10.334768
20	10.949434
21	13.121515
22	10.662786
23	10.407369
24	10.740290
25	10.413723
26	10.779942
27	10.398956
28	10.686274
29	10.376523
30	10.578043
31	10.465091
32	10.752668
33	10.218358
34	10.402747
35	10.174745
36	10.613077
37	10.326744
38	10.691493
39	10.375887
40	11.339121
