UpperStrip      Y-Lambda[keV]
1	0.000000
2	10.960954
3	11.657795
4	10.378550
5	11.214972
6	10.217750
7	11.958665
8	10.407287
9	0.000000
10	10.420032
11	0.000000
12	10.208622
13	12.054308
14	10.106751
15	11.396016
16	10.155148
17	10.989531
18	10.095513
19	10.660491
20	9.968336
21	10.379546
22	10.087315
23	10.460552
24	10.180798
25	10.524956
26	9.928353
27	10.480919
28	9.854700
29	10.396910
30	10.040615
31	10.547913
32	9.980923
33	11.531164
34	9.950197
35	12.759814
36	9.984578
37	13.667183
38	10.221982
39	13.795977
40	10.715608
